[{"line":1,"elements":[{"line":13,"name":"DDD Test case","description":"","id":"ddd-test-case","type":"scenario","keyword":"Scenario Outline","steps":[{"name":"url \"https:\/\/reqres.in\/\"","result":{"duration":3339500,"status":"passed"},"match":{"location":"karate","arguments":[]},"keyword":"Given","line":5,"doc_string":{"content_type":"","value":"16:53:26.206 skipping bootstrap configuration: could not find or read file: classpath:karate-config.js","line":5}},{"name":"path \"\/api\/users?page=1\"","result":{"duration":1845600,"status":"passed"},"match":{"location":"karate","arguments":[]},"keyword":"And","line":6},{"name":"method GET","result":{"duration":835803300,"status":"passed"},"match":{"location":"karate","arguments":[]},"keyword":"When","line":7,"doc_string":{"content_type":"","value":"16:53:26.597 request:\n1 > GET https:\/\/reqres.in\/api\/users%3Fpage=1\n1 > Accept-Encoding: gzip,deflate\n1 > Connection: Keep-Alive\n1 > Host: reqres.in\n1 > User-Agent: Apache-HttpClient\/4.5.12 (Java\/1.8.0_251)\n\n16:53:27.034 response time in milliseconds: 431.16\n1 < 200\n1 < Age: 115\n1 < CF-Cache-Status: HIT\n1 < CF-RAY: 5fb4ad04ba6501b0-SIN\n1 < Cache-Control: max-age=14400\n1 < Connection: keep-alive\n1 < Content-Type: application\/json; charset=utf-8\n1 < Date: Wed, 02 Dec 2020 11:23:26 GMT\n1 < Expect-CT: max-age=604800, report-uri=\"https:\/\/report-uri.cloudflare.com\/cdn-cgi\/beacon\/expect-ct\"\n1 < NEL: {\"report_to\":\"cf-nel\",\"max_age\":604800}\n1 < Report-To: {\"endpoints\":[{\"url\":\"https:\\\/\\\/a.nel.cloudflare.com\\\/report?s=O%2FJeGPRMCf9sqwbIZyPyns%2F61lvR0UpUT3fb%2BSkmKvkt%2Fij%2Bl%2FZsVySDMGBHtQpMmHJMk8UuY%2F4Qg9lowJ9wpsS8dZfpujn3A%2B8%3D\"}],\"group\":\"cf-nel\",\"max_age\":604800}\n1 < Server: cloudflare\n1 < Set-Cookie: __cfduid=def4e47ea5d32bc0ede1e5233685455b01606908206; expires=Fri, 01-Jan-21 11:23:26 GMT; path=\/; domain=.reqres.in; HttpOnly; SameSite=Lax; Secure\n1 < Transfer-Encoding: chunked\n1 < Vary: Accept-Encoding\n1 < access-control-allow-origin: *\n1 < cf-request-id: 06c4ca76ee000001b088a40000000001\n1 < etag: W\/\"2c1-N6Rqerxquq2kgQhL51EiSg4x0R8\"\n1 < via: 1.1 vegur\n1 < x-powered-by: Express\n{\"page\":1,\"per_page\":6,\"total\":12,\"total_pages\":2,\"data\":[{\"id\":1,\"name\":\"cerulean\",\"year\":2000,\"color\":\"#98B2D1\",\"pantone_value\":\"15-4020\"},{\"id\":2,\"name\":\"fuchsia rose\",\"year\":2001,\"color\":\"#C74375\",\"pantone_value\":\"17-2031\"},{\"id\":3,\"name\":\"true red\",\"year\":2002,\"color\":\"#BF1932\",\"pantone_value\":\"19-1664\"},{\"id\":4,\"name\":\"aqua sky\",\"year\":2003,\"color\":\"#7BC4C4\",\"pantone_value\":\"14-4811\"},{\"id\":5,\"name\":\"tigerlily\",\"year\":2004,\"color\":\"#E2583E\",\"pantone_value\":\"17-1456\"},{\"id\":6,\"name\":\"blue turquoise\",\"year\":2005,\"color\":\"#53B0AE\",\"pantone_value\":\"15-5217\"}],\"support\":{\"url\":\"https:\/\/reqres.in\/#support-heading\",\"text\":\"To keep ReqRes free, contributions towards server costs are appreciated!\"}}","line":7}},{"name":"status 200","result":{"duration":25700,"status":"passed"},"match":{"location":"karate","arguments":[]},"keyword":"Then","line":8},{"name":"match response.page == 1","result":{"duration":11416900,"status":"passed"},"match":{"location":"karate","arguments":[]},"keyword":"And","line":9}],"tags":[{"name":"@ddd","line":3}]},{"line":14,"name":"DDD Test case","description":"","id":"ddd-test-case","type":"scenario","keyword":"Scenario Outline","steps":[{"name":"url \"https:\/\/reqres.in\/\"","result":{"duration":140600,"status":"passed"},"match":{"location":"karate","arguments":[]},"keyword":"Given","line":5,"doc_string":{"content_type":"","value":"16:53:27.081 skipping bootstrap configuration: could not find or read file: classpath:karate-config.js","line":5}},{"name":"path \"\/api\/users?page=2\"","result":{"duration":2287800,"status":"passed"},"match":{"location":"karate","arguments":[]},"keyword":"And","line":6},{"name":"method GET","result":{"duration":160575800,"status":"passed"},"match":{"location":"karate","arguments":[]},"keyword":"When","line":7,"doc_string":{"content_type":"","value":"16:53:27.081 request:\n1 > GET https:\/\/reqres.in\/api\/users%3Fpage=2\n1 > Accept-Encoding: gzip,deflate\n1 > Connection: Keep-Alive\n1 > Host: reqres.in\n1 > User-Agent: Apache-HttpClient\/4.5.12 (Java\/1.8.0_251)\n\n16:53:27.238 response time in milliseconds: 156.32\n1 < 200\n1 < Access-Control-Allow-Origin: *\n1 < Age: 2445\n1 < CF-Cache-Status: HIT\n1 < CF-RAY: 5fb4ad064e3917bf-SIN\n1 < Cache-Control: max-age=14400\n1 < Connection: keep-alive\n1 < Content-Type: application\/json; charset=utf-8\n1 < Date: Wed, 02 Dec 2020 11:23:27 GMT\n1 < Etag: W\/\"2c1-N6Rqerxquq2kgQhL51EiSg4x0R8\"\n1 < Expect-CT: max-age=604800, report-uri=\"https:\/\/report-uri.cloudflare.com\/cdn-cgi\/beacon\/expect-ct\"\n1 < NEL: {\"report_to\":\"cf-nel\",\"max_age\":604800}\n1 < Report-To: {\"endpoints\":[{\"url\":\"https:\\\/\\\/a.nel.cloudflare.com\\\/report?s=Gif2XSjwp6ln%2B0owp3w634QYojz29UokAk%2Fzputn3wcYWVju5QOTnQYhlY%2Bg1qVKzo5hoo1LAwTtfV4uO0u%2Fm1K31tCamwXe4Y0%3D\"}],\"group\":\"cf-nel\",\"max_age\":604800}\n1 < Server: cloudflare\n1 < Set-Cookie: __cfduid=dd31722285cd60c607e6eee1aa7afd0e21606908207; expires=Fri, 01-Jan-21 11:23:27 GMT; path=\/; domain=.reqres.in; HttpOnly; SameSite=Lax; Secure\n1 < Transfer-Encoding: chunked\n1 < Vary: Accept-Encoding\n1 < Via: 1.1 vegur\n1 < X-Powered-By: Express\n1 < cf-request-id: 06c4ca77ed000017bff3b6a000000001\n{\"page\":1,\"per_page\":6,\"total\":12,\"total_pages\":2,\"data\":[{\"id\":1,\"name\":\"cerulean\",\"year\":2000,\"color\":\"#98B2D1\",\"pantone_value\":\"15-4020\"},{\"id\":2,\"name\":\"fuchsia rose\",\"year\":2001,\"color\":\"#C74375\",\"pantone_value\":\"17-2031\"},{\"id\":3,\"name\":\"true red\",\"year\":2002,\"color\":\"#BF1932\",\"pantone_value\":\"19-1664\"},{\"id\":4,\"name\":\"aqua sky\",\"year\":2003,\"color\":\"#7BC4C4\",\"pantone_value\":\"14-4811\"},{\"id\":5,\"name\":\"tigerlily\",\"year\":2004,\"color\":\"#E2583E\",\"pantone_value\":\"17-1456\"},{\"id\":6,\"name\":\"blue turquoise\",\"year\":2005,\"color\":\"#53B0AE\",\"pantone_value\":\"15-5217\"}],\"support\":{\"url\":\"https:\/\/reqres.in\/#support-heading\",\"text\":\"To keep ReqRes free, contributions towards server costs are appreciated!\"}}","line":7}},{"name":"status 200","result":{"duration":18900,"status":"passed"},"match":{"location":"karate","arguments":[]},"keyword":"Then","line":8},{"name":"match response.page == 1","result":{"duration":750100,"status":"passed"},"match":{"location":"karate","arguments":[]},"keyword":"And","line":9}],"tags":[{"name":"@ddd","line":3}]},{"line":15,"name":"DDD Test case","description":"","id":"ddd-test-case","type":"scenario","keyword":"Scenario Outline","steps":[{"name":"url \"https:\/\/reqres.in\/\"","result":{"duration":238400,"status":"passed"},"match":{"location":"karate","arguments":[]},"keyword":"Given","line":5,"doc_string":{"content_type":"","value":"16:53:27.254 skipping bootstrap configuration: could not find or read file: classpath:karate-config.js","line":5}},{"name":"path \"\/api\/users?page=3\"","result":{"duration":2607600,"status":"passed"},"match":{"location":"karate","arguments":[]},"keyword":"And","line":6},{"name":"method GET","result":{"duration":171723800,"status":"passed"},"match":{"location":"karate","arguments":[]},"keyword":"When","line":7,"doc_string":{"content_type":"","value":"16:53:27.254 request:\n1 > GET https:\/\/reqres.in\/api\/users%3Fpage=3\n1 > Accept-Encoding: gzip,deflate\n1 > Connection: Keep-Alive\n1 > Host: reqres.in\n1 > User-Agent: Apache-HttpClient\/4.5.12 (Java\/1.8.0_251)\n\n16:53:27.426 response time in milliseconds: 167.81\n1 < 200\n1 < Access-Control-Allow-Origin: *\n1 < Age: 1041\n1 < CF-Cache-Status: HIT\n1 < CF-RAY: 5fb4ad076dfcc322-SIN\n1 < Cache-Control: max-age=14400\n1 < Connection: keep-alive\n1 < Content-Type: application\/json; charset=utf-8\n1 < Date: Wed, 02 Dec 2020 11:23:27 GMT\n1 < Etag: W\/\"2c1-N6Rqerxquq2kgQhL51EiSg4x0R8\"\n1 < Expect-CT: max-age=604800, report-uri=\"https:\/\/report-uri.cloudflare.com\/cdn-cgi\/beacon\/expect-ct\"\n1 < NEL: {\"report_to\":\"cf-nel\",\"max_age\":604800}\n1 < Report-To: {\"endpoints\":[{\"url\":\"https:\\\/\\\/a.nel.cloudflare.com\\\/report?s=msp4N5QVsI%2BmUKFu9bI8w8QyBTTSUwMnabiIPeHyxBaoGKhEU2Rh8A2ScLvwk3K%2Fhp%2FdjLTcC2Tsht9KvQAJZlqDJwpUfRUd2q8%3D\"}],\"group\":\"cf-nel\",\"max_age\":604800}\n1 < Server: cloudflare\n1 < Set-Cookie: __cfduid=d1c3e9af285a26bb17c08e1b994b6ba8f1606908207; expires=Fri, 01-Jan-21 11:23:27 GMT; path=\/; domain=.reqres.in; HttpOnly; SameSite=Lax; Secure\n1 < Transfer-Encoding: chunked\n1 < Vary: Accept-Encoding\n1 < Via: 1.1 vegur\n1 < X-Powered-By: Express\n1 < cf-request-id: 06c4ca78a60000c322eb14f000000001\n{\"page\":1,\"per_page\":6,\"total\":12,\"total_pages\":2,\"data\":[{\"id\":1,\"name\":\"cerulean\",\"year\":2000,\"color\":\"#98B2D1\",\"pantone_value\":\"15-4020\"},{\"id\":2,\"name\":\"fuchsia rose\",\"year\":2001,\"color\":\"#C74375\",\"pantone_value\":\"17-2031\"},{\"id\":3,\"name\":\"true red\",\"year\":2002,\"color\":\"#BF1932\",\"pantone_value\":\"19-1664\"},{\"id\":4,\"name\":\"aqua sky\",\"year\":2003,\"color\":\"#7BC4C4\",\"pantone_value\":\"14-4811\"},{\"id\":5,\"name\":\"tigerlily\",\"year\":2004,\"color\":\"#E2583E\",\"pantone_value\":\"17-1456\"},{\"id\":6,\"name\":\"blue turquoise\",\"year\":2005,\"color\":\"#53B0AE\",\"pantone_value\":\"15-5217\"}],\"support\":{\"url\":\"https:\/\/reqres.in\/#support-heading\",\"text\":\"To keep ReqRes free, contributions towards server costs are appreciated!\"}}","line":7}},{"name":"status 200","result":{"duration":19100,"status":"passed"},"match":{"location":"karate","arguments":[]},"keyword":"Then","line":8},{"name":"match response.page == 1","result":{"duration":743800,"status":"passed"},"match":{"location":"karate","arguments":[]},"keyword":"And","line":9}],"tags":[{"name":"@ddd","line":3}]}],"name":"src\/test\/java\/FeatureFiles\/karate11.feature","description":"Data Driven testing","id":"data-driven-testing","keyword":"Feature","uri":"src\/test\/java\/FeatureFiles\/karate11.feature"}]