[{"line":1,"elements":[{"line":4,"name":"url and path usage test case","description":"","id":"url-and-path-usage-test-case","type":"scenario","keyword":"Scenario","steps":[{"name":"url \"https:\/\/reqres.in\/\"","result":{"duration":2199000,"status":"passed"},"match":{"location":"karate","arguments":[]},"keyword":"Given","line":5,"doc_string":{"content_type":"","value":"16:35:10.764 skipping bootstrap configuration: could not find or read file: classpath:karate-config.js","line":5}},{"name":"path \"\/api\/users?page=2\"","result":{"duration":1767000,"status":"passed"},"match":{"location":"karate","arguments":[]},"keyword":"And","line":6},{"name":"method GET","result":{"duration":831619100,"status":"passed"},"match":{"location":"karate","arguments":[]},"keyword":"When","line":7,"doc_string":{"content_type":"","value":"16:35:11.157 request:\n1 > GET https:\/\/reqres.in\/api\/users%3Fpage=2\n1 > Accept-Encoding: gzip,deflate\n1 > Connection: Keep-Alive\n1 > Host: reqres.in\n1 > User-Agent: Apache-HttpClient\/4.5.12 (Java\/1.8.0_251)\n\n16:35:11.582 response time in milliseconds: 425.36\n1 < 200\n1 < Access-Control-Allow-Origin: *\n1 < Age: 1349\n1 < CF-Cache-Status: HIT\n1 < CF-RAY: 5fb492464b030172-SIN\n1 < Cache-Control: max-age=14400\n1 < Connection: keep-alive\n1 < Content-Type: application\/json; charset=utf-8\n1 < Date: Wed, 02 Dec 2020 11:05:11 GMT\n1 < Etag: W\/\"2c1-N6Rqerxquq2kgQhL51EiSg4x0R8\"\n1 < Expect-CT: max-age=604800, report-uri=\"https:\/\/report-uri.cloudflare.com\/cdn-cgi\/beacon\/expect-ct\"\n1 < NEL: {\"report_to\":\"cf-nel\",\"max_age\":604800}\n1 < Report-To: {\"endpoints\":[{\"url\":\"https:\\\/\\\/a.nel.cloudflare.com\\\/report?s=Rzd05pnyn6C%2FOfQAn7TYPCzkBSNLaJf1rNoi6PRlN6PWWDNaT5MN9CIXwUqWfYE3zSRkpHI4zYcOMXuXyz1X0uD%2FDCHACvsgdRA%3D\"}],\"group\":\"cf-nel\",\"max_age\":604800}\n1 < Server: cloudflare\n1 < Set-Cookie: __cfduid=d695f8de9ae5e445e8c26f6da861e63321606907111; expires=Fri, 01-Jan-21 11:05:11 GMT; path=\/; domain=.reqres.in; HttpOnly; SameSite=Lax; Secure\n1 < Transfer-Encoding: chunked\n1 < Vary: Accept-Encoding\n1 < Via: 1.1 vegur\n1 < X-Powered-By: Express\n1 < cf-request-id: 06c4b9bfec00000172f3a40000000001\n{\"page\":1,\"per_page\":6,\"total\":12,\"total_pages\":2,\"data\":[{\"id\":1,\"name\":\"cerulean\",\"year\":2000,\"color\":\"#98B2D1\",\"pantone_value\":\"15-4020\"},{\"id\":2,\"name\":\"fuchsia rose\",\"year\":2001,\"color\":\"#C74375\",\"pantone_value\":\"17-2031\"},{\"id\":3,\"name\":\"true red\",\"year\":2002,\"color\":\"#BF1932\",\"pantone_value\":\"19-1664\"},{\"id\":4,\"name\":\"aqua sky\",\"year\":2003,\"color\":\"#7BC4C4\",\"pantone_value\":\"14-4811\"},{\"id\":5,\"name\":\"tigerlily\",\"year\":2004,\"color\":\"#E2583E\",\"pantone_value\":\"17-1456\"},{\"id\":6,\"name\":\"blue turquoise\",\"year\":2005,\"color\":\"#53B0AE\",\"pantone_value\":\"15-5217\"}],\"support\":{\"url\":\"https:\/\/reqres.in\/#support-heading\",\"text\":\"To keep ReqRes free, contributions towards server costs are appreciated!\"}}","line":7}},{"name":"status 200","result":{"duration":10700,"status":"passed"},"match":{"location":"karate","arguments":[]},"keyword":"Then","line":8},{"name":"match response.page == 1","result":{"duration":10892600,"status":"passed"},"match":{"location":"karate","arguments":[]},"keyword":"And","line":9}]}],"name":"src\/test\/java\/FeatureFiles\/karate10.feature","description":"Karate test suite 10\nusing url and path","id":"karate-test-suite-10","keyword":"Feature","uri":"src\/test\/java\/FeatureFiles\/karate10.feature"}]