[{"line":1,"elements":[{"line":13,"name":"DDD Test case","description":"","id":"ddd-test-case","type":"scenario","keyword":"Scenario Outline","steps":[{"name":"url \"https:\/\/reqres.in\/\"","result":{"duration":96600,"status":"passed"},"match":{"location":"karate","arguments":[]},"keyword":"Given","line":5,"doc_string":{"content_type":"","value":"19:05:07.906 From karate-config","line":5}},{"name":"path \"\/api\/users?page=1\"","result":{"duration":1450300,"status":"passed"},"match":{"location":"karate","arguments":[]},"keyword":"And","line":6},{"name":"method GET","result":{"duration":77140400,"status":"passed"},"match":{"location":"karate","arguments":[]},"keyword":"When","line":7,"doc_string":{"content_type":"","value":"19:05:07.909 request:\n1 > GET https:\/\/reqres.in\/api\/users%3Fpage=1\n1 > Accept-Encoding: gzip,deflate\n1 > Connection: Keep-Alive\n1 > Host: reqres.in\n1 > User-Agent: Apache-HttpClient\/4.5.12 (Java\/1.8.0_251)\n\n19:05:07.984 response time in milliseconds: 75.02\n1 < 200\n1 < Access-Control-Allow-Origin: *\n1 < Age: 1469\n1 < CF-Cache-Status: HIT\n1 < CF-RAY: 5fbdab472d54d597-BOM\n1 < Cache-Control: max-age=14400\n1 < Connection: keep-alive\n1 < Content-Type: application\/json; charset=utf-8\n1 < Date: Thu, 03 Dec 2020 13:35:07 GMT\n1 < Etag: W\/\"2c1-N6Rqerxquq2kgQhL51EiSg4x0R8\"\n1 < Expect-CT: max-age=604800, report-uri=\"https:\/\/report-uri.cloudflare.com\/cdn-cgi\/beacon\/expect-ct\"\n1 < NEL: {\"report_to\":\"cf-nel\",\"max_age\":604800}\n1 < Report-To: {\"endpoints\":[{\"url\":\"https:\\\/\\\/a.nel.cloudflare.com\\\/report?s=1MHzDx6LI2GTHtYhoet%2BrHl%2BO9AoHC%2Fr7Qkm7FleECwfjP0WywLkUik761H8FcLttOLgGK4wp12vujX%2FrulVuz0fOPS5lygFWwI%3D\"}],\"group\":\"cf-nel\",\"max_age\":604800}\n1 < Server: cloudflare\n1 < Set-Cookie: __cfduid=df108f49384772a751e06875be822c64e1607002507; expires=Sat, 02-Jan-21 13:35:07 GMT; path=\/; domain=.reqres.in; HttpOnly; SameSite=Lax; Secure\n1 < Transfer-Encoding: chunked\n1 < Vary: Accept-Encoding\n1 < Via: 1.1 vegur\n1 < X-Powered-By: Express\n1 < cf-request-id: 06ca6960770000d597c4a6a000000001\n{\"page\":1,\"per_page\":6,\"total\":12,\"total_pages\":2,\"data\":[{\"id\":1,\"name\":\"cerulean\",\"year\":2000,\"color\":\"#98B2D1\",\"pantone_value\":\"15-4020\"},{\"id\":2,\"name\":\"fuchsia rose\",\"year\":2001,\"color\":\"#C74375\",\"pantone_value\":\"17-2031\"},{\"id\":3,\"name\":\"true red\",\"year\":2002,\"color\":\"#BF1932\",\"pantone_value\":\"19-1664\"},{\"id\":4,\"name\":\"aqua sky\",\"year\":2003,\"color\":\"#7BC4C4\",\"pantone_value\":\"14-4811\"},{\"id\":5,\"name\":\"tigerlily\",\"year\":2004,\"color\":\"#E2583E\",\"pantone_value\":\"17-1456\"},{\"id\":6,\"name\":\"blue turquoise\",\"year\":2005,\"color\":\"#53B0AE\",\"pantone_value\":\"15-5217\"}],\"support\":{\"url\":\"https:\/\/reqres.in\/#support-heading\",\"text\":\"To keep ReqRes free, contributions towards server costs are appreciated!\"}}","line":7}},{"name":"status 200","result":{"duration":9000,"status":"passed"},"match":{"location":"karate","arguments":[]},"keyword":"Then","line":8},{"name":"match response.page == 1","result":{"duration":295000,"status":"passed"},"match":{"location":"karate","arguments":[]},"keyword":"And","line":9,"doc_string":{"content_type":"","value":"19:05:07.985 after scenario inside config","line":9}}],"tags":[{"name":"@ddd","line":3}]},{"line":14,"name":"DDD Test case","description":"","id":"ddd-test-case","type":"scenario","keyword":"Scenario Outline","steps":[{"name":"url \"https:\/\/reqres.in\/\"","result":{"duration":116900,"status":"passed"},"match":{"location":"karate","arguments":[]},"keyword":"Given","line":5,"doc_string":{"content_type":"","value":"19:05:07.989 From karate-config","line":5}},{"name":"path \"\/api\/users?page=2\"","result":{"duration":84600,"status":"passed"},"match":{"location":"karate","arguments":[]},"keyword":"And","line":6},{"name":"method GET","result":{"duration":86750500,"status":"passed"},"match":{"location":"karate","arguments":[]},"keyword":"When","line":7,"doc_string":{"content_type":"","value":"19:05:07.991 request:\n1 > GET https:\/\/reqres.in\/api\/users%3Fpage=2\n1 > Accept-Encoding: gzip,deflate\n1 > Connection: Keep-Alive\n1 > Host: reqres.in\n1 > User-Agent: Apache-HttpClient\/4.5.12 (Java\/1.8.0_251)\n\n19:05:08.076 response time in milliseconds: 83.20\n1 < 200\n1 < Access-Control-Allow-Origin: *\n1 < Age: 6941\n1 < CF-Cache-Status: HIT\n1 < CF-RAY: 5fbdab479f822e2f-BOM\n1 < Cache-Control: max-age=14400\n1 < Connection: keep-alive\n1 < Content-Type: application\/json; charset=utf-8\n1 < Date: Thu, 03 Dec 2020 13:35:07 GMT\n1 < Etag: W\/\"2c1-N6Rqerxquq2kgQhL51EiSg4x0R8\"\n1 < Expect-CT: max-age=604800, report-uri=\"https:\/\/report-uri.cloudflare.com\/cdn-cgi\/beacon\/expect-ct\"\n1 < NEL: {\"report_to\":\"cf-nel\",\"max_age\":604800}\n1 < Report-To: {\"endpoints\":[{\"url\":\"https:\\\/\\\/a.nel.cloudflare.com\\\/report?s=v5hNSYaKaWd%2BsOkUV3F%2BMeZmnnsLXWo%2FSM4ydxEd5DZ4NtAzV6eLR6YDyJgQd%2BgHGKOpLHsmal59AX0NbcHrUlJfsCeSGEDq5cQ%3D\"}],\"group\":\"cf-nel\",\"max_age\":604800}\n1 < Server: cloudflare\n1 < Set-Cookie: __cfduid=d6155e7daa2153ae63bb689e6c438aa941607002507; expires=Sat, 02-Jan-21 13:35:07 GMT; path=\/; domain=.reqres.in; HttpOnly; SameSite=Lax; Secure\n1 < Transfer-Encoding: chunked\n1 < Vary: Accept-Encoding\n1 < Via: 1.1 vegur\n1 < X-Powered-By: Express\n1 < cf-request-id: 06ca6960bd00002e2f2127c000000001\n{\"page\":1,\"per_page\":6,\"total\":12,\"total_pages\":2,\"data\":[{\"id\":1,\"name\":\"cerulean\",\"year\":2000,\"color\":\"#98B2D1\",\"pantone_value\":\"15-4020\"},{\"id\":2,\"name\":\"fuchsia rose\",\"year\":2001,\"color\":\"#C74375\",\"pantone_value\":\"17-2031\"},{\"id\":3,\"name\":\"true red\",\"year\":2002,\"color\":\"#BF1932\",\"pantone_value\":\"19-1664\"},{\"id\":4,\"name\":\"aqua sky\",\"year\":2003,\"color\":\"#7BC4C4\",\"pantone_value\":\"14-4811\"},{\"id\":5,\"name\":\"tigerlily\",\"year\":2004,\"color\":\"#E2583E\",\"pantone_value\":\"17-1456\"},{\"id\":6,\"name\":\"blue turquoise\",\"year\":2005,\"color\":\"#53B0AE\",\"pantone_value\":\"15-5217\"}],\"support\":{\"url\":\"https:\/\/reqres.in\/#support-heading\",\"text\":\"To keep ReqRes free, contributions towards server costs are appreciated!\"}}","line":7}},{"name":"status 200","result":{"duration":17900,"status":"passed"},"match":{"location":"karate","arguments":[]},"keyword":"Then","line":8},{"name":"match response.page == 1","result":{"duration":731800,"status":"passed"},"match":{"location":"karate","arguments":[]},"keyword":"And","line":9,"doc_string":{"content_type":"","value":"19:05:08.078 after scenario inside config","line":9}}],"tags":[{"name":"@ddd","line":3}]},{"line":15,"name":"DDD Test case","description":"","id":"ddd-test-case","type":"scenario","keyword":"Scenario Outline","steps":[{"name":"url \"https:\/\/reqres.in\/\"","result":{"duration":226700,"status":"passed"},"match":{"location":"karate","arguments":[]},"keyword":"Given","line":5,"doc_string":{"content_type":"","value":"19:05:08.085 From karate-config","line":5}},{"name":"path \"\/api\/users?page=3\"","result":{"duration":3759500,"status":"passed"},"match":{"location":"karate","arguments":[]},"keyword":"And","line":6},{"name":"method GET","result":{"duration":115579100,"status":"passed"},"match":{"location":"karate","arguments":[]},"keyword":"When","line":7,"doc_string":{"content_type":"","value":"19:05:08.093 request:\n1 > GET https:\/\/reqres.in\/api\/users%3Fpage=3\n1 > Accept-Encoding: gzip,deflate\n1 > Connection: Keep-Alive\n1 > Host: reqres.in\n1 > User-Agent: Apache-HttpClient\/4.5.12 (Java\/1.8.0_251)\n\n19:05:08.206 response time in milliseconds: 110.85\n1 < 200\n1 < Access-Control-Allow-Origin: *\n1 < Age: 1468\n1 < CF-Cache-Status: HIT\n1 < CF-RAY: 5fbdab483f4a31ed-BOM\n1 < Cache-Control: max-age=14400\n1 < Connection: keep-alive\n1 < Content-Type: application\/json; charset=utf-8\n1 < Date: Thu, 03 Dec 2020 13:35:07 GMT\n1 < Etag: W\/\"2c1-N6Rqerxquq2kgQhL51EiSg4x0R8\"\n1 < Expect-CT: max-age=604800, report-uri=\"https:\/\/report-uri.cloudflare.com\/cdn-cgi\/beacon\/expect-ct\"\n1 < NEL: {\"report_to\":\"cf-nel\",\"max_age\":604800}\n1 < Report-To: {\"endpoints\":[{\"url\":\"https:\\\/\\\/a.nel.cloudflare.com\\\/report?s=xfv7W2Lqk0EYBpylpbZ52qKUURJUv40yn9F2uNH8fey8zv%2BWy6TpdmaJI0NtrU7txX9rXxsAm%2FLgdMY%2BtFoDvv%2Bp%2BHGptLZbk5E%3D\"}],\"group\":\"cf-nel\",\"max_age\":604800}\n1 < Server: cloudflare\n1 < Set-Cookie: __cfduid=d1af9e38385d343e4eaf855b5e7778a961607002507; expires=Sat, 02-Jan-21 13:35:07 GMT; path=\/; domain=.reqres.in; HttpOnly; SameSite=Lax; Secure\n1 < Transfer-Encoding: chunked\n1 < Vary: Accept-Encoding\n1 < Via: 1.1 vegur\n1 < X-Powered-By: Express\n1 < cf-request-id: 06ca696125000031ed3faf9000000001\n{\"page\":1,\"per_page\":6,\"total\":12,\"total_pages\":2,\"data\":[{\"id\":1,\"name\":\"cerulean\",\"year\":2000,\"color\":\"#98B2D1\",\"pantone_value\":\"15-4020\"},{\"id\":2,\"name\":\"fuchsia rose\",\"year\":2001,\"color\":\"#C74375\",\"pantone_value\":\"17-2031\"},{\"id\":3,\"name\":\"true red\",\"year\":2002,\"color\":\"#BF1932\",\"pantone_value\":\"19-1664\"},{\"id\":4,\"name\":\"aqua sky\",\"year\":2003,\"color\":\"#7BC4C4\",\"pantone_value\":\"14-4811\"},{\"id\":5,\"name\":\"tigerlily\",\"year\":2004,\"color\":\"#E2583E\",\"pantone_value\":\"17-1456\"},{\"id\":6,\"name\":\"blue turquoise\",\"year\":2005,\"color\":\"#53B0AE\",\"pantone_value\":\"15-5217\"}],\"support\":{\"url\":\"https:\/\/reqres.in\/#support-heading\",\"text\":\"To keep ReqRes free, contributions towards server costs are appreciated!\"}}","line":7}},{"name":"status 200","result":{"duration":17900,"status":"passed"},"match":{"location":"karate","arguments":[]},"keyword":"Then","line":8},{"name":"match response.page == 1","result":{"duration":648200,"status":"passed"},"match":{"location":"karate","arguments":[]},"keyword":"And","line":9,"doc_string":{"content_type":"","value":"19:05:08.208 after scenario inside config","line":9}}],"tags":[{"name":"@ddd","line":3}]}],"name":"FeatureFiles\/karate11.feature","description":"Data Driven testing","id":"data-driven-testing","keyword":"Feature","uri":"FeatureFiles\/karate11.feature"}]