[{"line":1,"elements":[{"line":4,"name":"url and path usage test case 1","description":"","id":"url-and-path-usage-test-case-1","type":"scenario","keyword":"Scenario","steps":[{"name":"url \"https:\/\/reqres.in\/\"","result":{"duration":142900,"status":"passed"},"match":{"location":"karate","arguments":[]},"keyword":"Given","line":5,"doc_string":{"content_type":"","value":"19:05:07.709 From karate-config","line":5}},{"name":"path \"\/api\/users?page=2\"","result":{"duration":102700,"status":"passed"},"match":{"location":"karate","arguments":[]},"keyword":"And","line":6},{"name":"method GET","result":{"duration":80590700,"status":"passed"},"match":{"location":"karate","arguments":[]},"keyword":"When","line":7,"doc_string":{"content_type":"","value":"19:05:07.710 request:\n1 > GET https:\/\/reqres.in\/api\/users%3Fpage=2\n1 > Accept-Encoding: gzip,deflate\n1 > Connection: Keep-Alive\n1 > Host: reqres.in\n1 > User-Agent: Apache-HttpClient\/4.5.12 (Java\/1.8.0_251)\n\n19:05:07.790 response time in milliseconds: 78.03\n1 < 200\n1 < Access-Control-Allow-Origin: *\n1 < Age: 6941\n1 < CF-Cache-Status: HIT\n1 < CF-RAY: 5fbdab45ef4831c3-BOM\n1 < Cache-Control: max-age=14400\n1 < Connection: keep-alive\n1 < Content-Type: application\/json; charset=utf-8\n1 < Date: Thu, 03 Dec 2020 13:35:07 GMT\n1 < Etag: W\/\"2c1-N6Rqerxquq2kgQhL51EiSg4x0R8\"\n1 < Expect-CT: max-age=604800, report-uri=\"https:\/\/report-uri.cloudflare.com\/cdn-cgi\/beacon\/expect-ct\"\n1 < NEL: {\"report_to\":\"cf-nel\",\"max_age\":604800}\n1 < Report-To: {\"endpoints\":[{\"url\":\"https:\\\/\\\/a.nel.cloudflare.com\\\/report?s=S5%2Brmr%2BhUjx7tRutwdljfjnJ0%2B0vykElyfG1pQnTae9RnDeqOUDfksNe3MSLcy0AQtkR9qKCwEt91ux9h3cZgccm9716LCwqZ5w%3D\"}],\"group\":\"cf-nel\",\"max_age\":604800}\n1 < Server: cloudflare\n1 < Set-Cookie: __cfduid=d069d0230537c2ce206eb1c3e9c1ec6c91607002507; expires=Sat, 02-Jan-21 13:35:07 GMT; path=\/; domain=.reqres.in; HttpOnly; SameSite=Lax; Secure\n1 < Transfer-Encoding: chunked\n1 < Vary: Accept-Encoding\n1 < Via: 1.1 vegur\n1 < X-Powered-By: Express\n1 < cf-request-id: 06ca695fb4000031c3f38e4000000001\n{\"page\":1,\"per_page\":6,\"total\":12,\"total_pages\":2,\"data\":[{\"id\":1,\"name\":\"cerulean\",\"year\":2000,\"color\":\"#98B2D1\",\"pantone_value\":\"15-4020\"},{\"id\":2,\"name\":\"fuchsia rose\",\"year\":2001,\"color\":\"#C74375\",\"pantone_value\":\"17-2031\"},{\"id\":3,\"name\":\"true red\",\"year\":2002,\"color\":\"#BF1932\",\"pantone_value\":\"19-1664\"},{\"id\":4,\"name\":\"aqua sky\",\"year\":2003,\"color\":\"#7BC4C4\",\"pantone_value\":\"14-4811\"},{\"id\":5,\"name\":\"tigerlily\",\"year\":2004,\"color\":\"#E2583E\",\"pantone_value\":\"17-1456\"},{\"id\":6,\"name\":\"blue turquoise\",\"year\":2005,\"color\":\"#53B0AE\",\"pantone_value\":\"15-5217\"}],\"support\":{\"url\":\"https:\/\/reqres.in\/#support-heading\",\"text\":\"To keep ReqRes free, contributions towards server costs are appreciated!\"}}","line":7}},{"name":"status 200","result":{"duration":14900,"status":"passed"},"match":{"location":"karate","arguments":[]},"keyword":"Then","line":8},{"name":"match response.page == 1","result":{"duration":554200,"status":"passed"},"match":{"location":"karate","arguments":[]},"keyword":"And","line":9,"doc_string":{"content_type":"","value":"19:05:07.791 after scenario inside config","line":9}}]},{"line":11,"name":"url and path usage test case 2","description":"","id":"url-and-path-usage-test-case-2","type":"scenario","keyword":"Scenario","steps":[{"name":"url \"https:\/\/reqres.in\/\"","result":{"duration":324600,"status":"passed"},"match":{"location":"karate","arguments":[]},"keyword":"Given","line":12,"doc_string":{"content_type":"","value":"19:05:07.799 From karate-config","line":12}},{"name":"path \"\/api\/users\"","result":{"duration":4513500,"status":"passed"},"match":{"location":"karate","arguments":[]},"keyword":"And","line":13},{"name":"param page = 2","result":{"duration":4268800,"status":"passed"},"match":{"location":"karate","arguments":[]},"keyword":"And","line":14},{"name":"method GET","result":{"duration":80589900,"status":"passed"},"match":{"location":"karate","arguments":[]},"keyword":"When","line":15,"doc_string":{"content_type":"","value":"19:05:07.813 request:\n1 > GET https:\/\/reqres.in\/api\/users?page=2\n1 > Accept-Encoding: gzip,deflate\n1 > Connection: Keep-Alive\n1 > Host: reqres.in\n1 > User-Agent: Apache-HttpClient\/4.5.12 (Java\/1.8.0_251)\n\n19:05:07.891 response time in milliseconds: 76.94\n1 < 200\n1 < Access-Control-Allow-Origin: *\n1 < Age: 4044\n1 < CF-Cache-Status: HIT\n1 < CF-RAY: 5fbdab468ba32dfe-BOM\n1 < Cache-Control: max-age=14400\n1 < Connection: keep-alive\n1 < Content-Type: application\/json; charset=utf-8\n1 < Date: Thu, 03 Dec 2020 13:35:07 GMT\n1 < Etag: W\/\"406-ut0vzoCuidvyMf8arZpMpJ6ZRDw\"\n1 < Expect-CT: max-age=604800, report-uri=\"https:\/\/report-uri.cloudflare.com\/cdn-cgi\/beacon\/expect-ct\"\n1 < NEL: {\"report_to\":\"cf-nel\",\"max_age\":604800}\n1 < Report-To: {\"endpoints\":[{\"url\":\"https:\\\/\\\/a.nel.cloudflare.com\\\/report?s=buc9WUqOy8VqSjTIK%2BdPal65KjCQrfgW5J4OOyVuitWUKXQHnHuZgK0neGuoKIHxfw1zL7cnGYLHTBr7%2Bt6z%2FzLA42XbwFJyp7c%3D\"}],\"group\":\"cf-nel\",\"max_age\":604800}\n1 < Server: cloudflare\n1 < Set-Cookie: __cfduid=d763c989e889c605ccd9316ce4ccec07d1607002507; expires=Sat, 02-Jan-21 13:35:07 GMT; path=\/; domain=.reqres.in; HttpOnly; SameSite=Lax; Secure\n1 < Transfer-Encoding: chunked\n1 < Vary: Accept-Encoding\n1 < Via: 1.1 vegur\n1 < X-Powered-By: Express\n1 < cf-request-id: 06ca69601100002dfec51a8000000001\n{\"page\":2,\"per_page\":6,\"total\":12,\"total_pages\":2,\"data\":[{\"id\":7,\"email\":\"michael.lawson@reqres.in\",\"first_name\":\"Michael\",\"last_name\":\"Lawson\",\"avatar\":\"https:\/\/reqres.in\/img\/faces\/7-image.jpg\"},{\"id\":8,\"email\":\"lindsay.ferguson@reqres.in\",\"first_name\":\"Lindsay\",\"last_name\":\"Ferguson\",\"avatar\":\"https:\/\/reqres.in\/img\/faces\/8-image.jpg\"},{\"id\":9,\"email\":\"tobias.funke@reqres.in\",\"first_name\":\"Tobias\",\"last_name\":\"Funke\",\"avatar\":\"https:\/\/reqres.in\/img\/faces\/9-image.jpg\"},{\"id\":10,\"email\":\"byron.fields@reqres.in\",\"first_name\":\"Byron\",\"last_name\":\"Fields\",\"avatar\":\"https:\/\/reqres.in\/img\/faces\/10-image.jpg\"},{\"id\":11,\"email\":\"george.edwards@reqres.in\",\"first_name\":\"George\",\"last_name\":\"Edwards\",\"avatar\":\"https:\/\/reqres.in\/img\/faces\/11-image.jpg\"},{\"id\":12,\"email\":\"rachel.howell@reqres.in\",\"first_name\":\"Rachel\",\"last_name\":\"Howell\",\"avatar\":\"https:\/\/reqres.in\/img\/faces\/12-image.jpg\"}],\"support\":{\"url\":\"https:\/\/reqres.in\/#support-heading\",\"text\":\"To keep ReqRes free, contributions towards server costs are appreciated!\"}}","line":15}},{"name":"status 200","result":{"duration":8500,"status":"passed"},"match":{"location":"karate","arguments":[]},"keyword":"Then","line":16},{"name":"match response.page == 1","result":{"duration":504300,"error_message":"com.intuit.karate.exception.KarateException: karate10.feature:17 - path: $.page, actual: 2, expected: 1, reason: not equal (Integer)","status":"failed"},"match":{"location":"karate","arguments":[]},"keyword":"And","line":17,"doc_string":{"content_type":"","value":"19:05:07.892 assertion failed: path: $.page, actual: 2, expected: 1, reason: not equal (Integer)19:05:07.892 after scenario inside config","line":17}}]}],"name":"FeatureFiles\/karate10.feature","description":"Karate test suite 10\nusing url and path","id":"karate-test-suite-10","keyword":"Feature","uri":"FeatureFiles\/karate10.feature"}]